{"dt-api":{"summary":"Get paging information about the table","description":"The paging state of the table can often be useful to understand what data is being displayed in a table at any given time - indeed it can even be useful when `dt-init paging` is disabled to get information about the number of records in the table.\r\n\r\n\t\tThis method provides information about the table's paging state, and information about the number of records in the table (both total and in the search result set).\r\n\r\n\t\tThe returned object has the following properties:\r\n\r\n\t\t* `page` - Current page index (zero based - i.e. the first page is `0`)\r\n\t\t* `pages` - Total number of pages\r\n\t\t* `start` - Display index for the first record shown on the current page\r\n\t\t* `end` - Display index for the last record shown on the current page\r\n\t\t* `length` - Display length (number of records). Note that generally `start\r\n\t\t  + length = end`, but this is not always true, for example if there are\r\n\t\t  only 2 records to show on the final page, with a length of 10.\r\n\t\t* `recordsTotal` - Full data set length\r\n\t\t* `recordsDisplay` - Data set length once the current search criteria has been applied.\r\n\t\t* `serverSide` - A boolean value that indicates if the table is operating in server-side processing mode or not (`dt-init serverSide`). This can be useful when working with paging and the API as index results can be offset by the display start point.\r\n\r\n\t\tExample returned object:\r\n\r\n\t\t```js\r\n\t\t{\r\n\t\t\t\"page\": 1,\r\n\t\t\t\"pages\": 6,\r\n\t\t\t\"start\": 10,\r\n\t\t\t\"end\": 20,\r\n\t\t\t\"length\": 10,\r\n\t\t\t\"recordsTotal\": 57,\r\n\t\t\t\"recordsDisplay\": 57,\r\n\t\t\t\"serverSide\": false\r\n\t\t}\r\n\t\t```","name":"page.info()","example":{"content":"\r\nvar table = $('#example').DataTable();\r\nvar info = table.page.info();\r\n\r\n$('#tableInfo').html(\r\n\t'Currently showing page '+(info.page+1)+' of '+info.pages+' pages.'\r\n);\r\n","title":"Get the current page and number of records in the table"},"since":"1.10","type":{"description":"Get information about the table's paging state. Note that if multiple tables are available in the API's context, the page length of the first table in the context will be used. Use `dt-api table()` if you are working with multiple tables in a single API context.","returns":{"content":"Object (described below) with information about the table's paging state.","type":"object"},"type":"function","signature":"page.info()"},"group":"core","related":[{"content":"paging","type":"init"},{"content":"page.len()","type":"api"}]}}